%YAML 1.1
%TAG !u! tag:unity3d.com,2011:
--- !u!74 &7400000
AnimationClip:
  m_ObjectHideFlags: 0
  m_CorrespondingSourceObject: {fileID: 0}
  m_PrefabInstance: {fileID: 0}
  m_PrefabAsset: {fileID: 0}
  m_Name: buzova_walk_anim
  serializedVersion: 6
  m_Legacy: 0
  m_Compressed: 0
  m_UseHighQualityCurve: 1
  m_RotationCurves: []
  m_CompressedRotationCurves: []
  m_EulerCurves: []
  m_PositionCurves: []
  m_ScaleCurves: []
  m_FloatCurves: []
  m_PPtrCurves:
  - curve:
    - time: 0
      value: {fileID: 160097061487745369, guid: 4e205269ded2fd44d9582b3a055cdf21,
        type: 3}
    - time: 0.1
      value: {fileID: -4913232608707991301, guid: 4e205269ded2fd44d9582b3a055cdf21,
        type: 3}
    - time: 0.18333334
      value: {fileID: -7469935623534327051, guid: 4e205269ded2fd44d9582b3a055cdf21,
        type: 3}
    - time: 0.3
      value: {fileID: -9020194641783360412, guid: 4e205269ded2fd44d9582b3a055cdf21,
        type: 3}
    - time: 0.4
      value: {fileID: -61836303081500404, guid: 4e205269ded2fd44d9582b3a055cdf21,
        type: 3}
    - time: 0.51666665
      value: {fileID: 364284986697773026, guid: 4e205269ded2fd44d9582b3a055cdf21,
        type: 3}
    - time: 0.6
      value: {fileID: -4623201547512045193, guid: 4e205269ded2fd44d9582b3a055cdf21,
        type: 3}
    - time: 0.7
      value: {fileID: 5682980812522561524, guid: 4e205269ded2fd44d9582b3a055cdf21,
        type: 3}
    attribute: m_Sprite
    path: 
    classID: 212
    script: {fileID: 0}
  m_SampleRate: 60
  m_WrapMode: 0
  m_Bounds:
    m_Center: {x: 0, y: 0, z: 0}
    m_Extent: {x: 0, y: 0, z: 0}
  m_ClipBindingConstant:
    genericBindings:
    - serializedVersion: 2
      path: 0
      attribute: 0
      script: {fileID: 0}
      typeID: 212
      customType: 23
      isPPtrCurve: 1
    pptrCurveMapping:
    - {fileID: 160097061487745369, guid: 4e205269ded2fd44d9582b3a055cdf21, type: 3}
    - {fileID: -4913232608707991301, guid: 4e205269ded2fd44d9582b3a055cdf21, type: 3}
    - {fileID: -7469935623534327051, guid: 4e205269ded2fd44d9582b3a055cdf21, type: 3}
    - {fileID: -9020194641783360412, guid: 4e205269ded2fd44d9582b3a055cdf21, type: 3}
    - {fileID: -61836303081500404, guid: 4e205269ded2fd44d9582b3a055cdf21, type: 3}
    - {fileID: 364284986697773026, guid: 4e205269ded2fd44d9582b3a055cdf21, type: 3}
    - {fileID: -4623201547512045193, guid: 4e205269ded2fd44d9582b3a055cdf21, type: 3}
    - {fileID: 5682980812522561524, guid: 4e205269ded2fd44d9582b3a055cdf21, type: 3}
  m_AnimationClipSettings:
    serializedVersion: 2
    m_AdditiveReferencePoseClip: {fileID: 0}
    m_AdditiveReferencePoseTime: 0
    m_StartTime: 0
    m_StopTime: 0.71666664
    m_OrientationOffsetY: 0
    m_Level: 0
    m_CycleOffset: 0
    m_HasAdditiveReferencePose: 0
    m_LoopTime: 1
    m_LoopBlend: 0
    m_LoopBlendOrientation: 0
    m_LoopBlendPositionY: 0
    m_LoopBlendPositionXZ: 0
    m_KeepOriginalOrientation: 0
    m_KeepOriginalPositionY: 1
    m_KeepOriginalPositionXZ: 0
    m_HeightFromFeet: 0
    m_Mirror: 0
  m_EditorCurves: []
  m_EulerEditorCurves: []
  m_HasGenericRootTransform: 0
  m_HasMotionFloatCurves: 0
  m_Events:
  - time: 0
    functionName: UpdateColider
    data: 
    objectReferenceParameter: {fileID: 11400000, guid: 08c2b17d8fb94cf43a734392f4998f82,
      type: 2}
    floatParameter: 0
    intParameter: 0
    messageOptions: 0
