%YAML 1.1
%TAG !u! tag:unity3d.com,2011:
--- !u!74 &7400000
AnimationClip:
  m_ObjectHideFlags: 0
  m_CorrespondingSourceObject: {fileID: 0}
  m_PrefabInstance: {fileID: 0}
  m_PrefabAsset: {fileID: 0}
  m_Name: buzova_buzova_dance
  serializedVersion: 6
  m_Legacy: 0
  m_Compressed: 0
  m_UseHighQualityCurve: 1
  m_RotationCurves: []
  m_CompressedRotationCurves: []
  m_EulerCurves: []
  m_PositionCurves: []
  m_ScaleCurves: []
  m_FloatCurves: []
  m_PPtrCurves:
  - curve:
    - time: 0
      value: {fileID: 7594391864805103395, guid: bf7a24d532abb02408cf3815ba511c49,
        type: 3}
    - time: 0.18333334
      value: {fileID: 7526832727056246337, guid: bf7a24d532abb02408cf3815ba511c49,
        type: 3}
    - time: 0.31666666
      value: {fileID: -5615880085079492189, guid: bf7a24d532abb02408cf3815ba511c49,
        type: 3}
    - time: 0.5
      value: {fileID: -402707617240676861, guid: bf7a24d532abb02408cf3815ba511c49,
        type: 3}
    - time: 0.68333334
      value: {fileID: -7872567645043327009, guid: bf7a24d532abb02408cf3815ba511c49,
        type: 3}
    - time: 0.81666666
      value: {fileID: 8906258290623609562, guid: bf7a24d532abb02408cf3815ba511c49,
        type: 3}
    - time: 1
      value: {fileID: 4442245031018628696, guid: bf7a24d532abb02408cf3815ba511c49,
        type: 3}
    - time: 1.1833333
      value: {fileID: -4547162763832343296, guid: bf7a24d532abb02408cf3815ba511c49,
        type: 3}
    - time: 1.3166667
      value: {fileID: 527943906757913857, guid: bf7a24d532abb02408cf3815ba511c49,
        type: 3}
    - time: 1.5
      value: {fileID: 1208639856909243799, guid: bf7a24d532abb02408cf3815ba511c49,
        type: 3}
    attribute: m_Sprite
    path: 
    classID: 212
    script: {fileID: 0}
  m_SampleRate: 60
  m_WrapMode: 0
  m_Bounds:
    m_Center: {x: 0, y: 0, z: 0}
    m_Extent: {x: 0, y: 0, z: 0}
  m_ClipBindingConstant:
    genericBindings:
    - serializedVersion: 2
      path: 0
      attribute: 0
      script: {fileID: 0}
      typeID: 212
      customType: 23
      isPPtrCurve: 1
    pptrCurveMapping:
    - {fileID: 7594391864805103395, guid: bf7a24d532abb02408cf3815ba511c49, type: 3}
    - {fileID: 7526832727056246337, guid: bf7a24d532abb02408cf3815ba511c49, type: 3}
    - {fileID: -5615880085079492189, guid: bf7a24d532abb02408cf3815ba511c49, type: 3}
    - {fileID: -402707617240676861, guid: bf7a24d532abb02408cf3815ba511c49, type: 3}
    - {fileID: -7872567645043327009, guid: bf7a24d532abb02408cf3815ba511c49, type: 3}
    - {fileID: 8906258290623609562, guid: bf7a24d532abb02408cf3815ba511c49, type: 3}
    - {fileID: 4442245031018628696, guid: bf7a24d532abb02408cf3815ba511c49, type: 3}
    - {fileID: -4547162763832343296, guid: bf7a24d532abb02408cf3815ba511c49, type: 3}
    - {fileID: 527943906757913857, guid: bf7a24d532abb02408cf3815ba511c49, type: 3}
    - {fileID: 1208639856909243799, guid: bf7a24d532abb02408cf3815ba511c49, type: 3}
  m_AnimationClipSettings:
    serializedVersion: 2
    m_AdditiveReferencePoseClip: {fileID: 0}
    m_AdditiveReferencePoseTime: 0
    m_StartTime: 0
    m_StopTime: 1.5166667
    m_OrientationOffsetY: 0
    m_Level: 0
    m_CycleOffset: 0
    m_HasAdditiveReferencePose: 0
    m_LoopTime: 0
    m_LoopBlend: 0
    m_LoopBlendOrientation: 0
    m_LoopBlendPositionY: 0
    m_LoopBlendPositionXZ: 0
    m_KeepOriginalOrientation: 0
    m_KeepOriginalPositionY: 1
    m_KeepOriginalPositionXZ: 0
    m_HeightFromFeet: 0
    m_Mirror: 0
  m_EditorCurves: []
  m_EulerEditorCurves: []
  m_HasGenericRootTransform: 0
  m_HasMotionFloatCurves: 0
  m_Events: []
