%YAML 1.1
%TAG !u! tag:unity3d.com,2011:
--- !u!74 &7400000
AnimationClip:
  m_ObjectHideFlags: 0
  m_CorrespondingSourceObject: {fileID: 0}
  m_PrefabInstance: {fileID: 0}
  m_PrefabAsset: {fileID: 0}
  m_Name: buzova_special_strike_2_anim
  serializedVersion: 6
  m_Legacy: 0
  m_Compressed: 0
  m_UseHighQualityCurve: 1
  m_RotationCurves: []
  m_CompressedRotationCurves: []
  m_EulerCurves: []
  m_PositionCurves: []
  m_ScaleCurves: []
  m_FloatCurves: []
  m_PPtrCurves:
  - curve:
    - time: 0
      value: {fileID: 4313865052353466880, guid: 53575fec838cd7a458d5c2c70fde204b,
        type: 3}
    - time: 0.1
      value: {fileID: -5073359854244457942, guid: 53575fec838cd7a458d5c2c70fde204b,
        type: 3}
    - time: 0.18333334
      value: {fileID: 4186829009072908258, guid: 53575fec838cd7a458d5c2c70fde204b,
        type: 3}
    - time: 0.28333333
      value: {fileID: 1001323959982063735, guid: 53575fec838cd7a458d5c2c70fde204b,
        type: 3}
    - time: 0.36666667
      value: {fileID: -4986499184608247224, guid: 53575fec838cd7a458d5c2c70fde204b,
        type: 3}
    - time: 0.46666667
      value: {fileID: -6342104816426952975, guid: 53575fec838cd7a458d5c2c70fde204b,
        type: 3}
    - time: 0.56666666
      value: {fileID: -5890186248648977763, guid: 53575fec838cd7a458d5c2c70fde204b,
        type: 3}
    - time: 0.65
      value: {fileID: 8543401368795626911, guid: 53575fec838cd7a458d5c2c70fde204b,
        type: 3}
    - time: 0.75
      value: {fileID: 8423599635613712613, guid: 53575fec838cd7a458d5c2c70fde204b,
        type: 3}
    attribute: m_Sprite
    path: 
    classID: 212
    script: {fileID: 0}
  m_SampleRate: 60
  m_WrapMode: 0
  m_Bounds:
    m_Center: {x: 0, y: 0, z: 0}
    m_Extent: {x: 0, y: 0, z: 0}
  m_ClipBindingConstant:
    genericBindings:
    - serializedVersion: 2
      path: 0
      attribute: 0
      script: {fileID: 0}
      typeID: 212
      customType: 23
      isPPtrCurve: 1
    pptrCurveMapping:
    - {fileID: 4313865052353466880, guid: 53575fec838cd7a458d5c2c70fde204b, type: 3}
    - {fileID: -5073359854244457942, guid: 53575fec838cd7a458d5c2c70fde204b, type: 3}
    - {fileID: 4186829009072908258, guid: 53575fec838cd7a458d5c2c70fde204b, type: 3}
    - {fileID: 1001323959982063735, guid: 53575fec838cd7a458d5c2c70fde204b, type: 3}
    - {fileID: -4986499184608247224, guid: 53575fec838cd7a458d5c2c70fde204b, type: 3}
    - {fileID: -6342104816426952975, guid: 53575fec838cd7a458d5c2c70fde204b, type: 3}
    - {fileID: -5890186248648977763, guid: 53575fec838cd7a458d5c2c70fde204b, type: 3}
    - {fileID: 8543401368795626911, guid: 53575fec838cd7a458d5c2c70fde204b, type: 3}
    - {fileID: 8423599635613712613, guid: 53575fec838cd7a458d5c2c70fde204b, type: 3}
  m_AnimationClipSettings:
    serializedVersion: 2
    m_AdditiveReferencePoseClip: {fileID: 0}
    m_AdditiveReferencePoseTime: 0
    m_StartTime: 0
    m_StopTime: 0.8333333
    m_OrientationOffsetY: 0
    m_Level: 0
    m_CycleOffset: 0
    m_HasAdditiveReferencePose: 0
    m_LoopTime: 0
    m_LoopBlend: 0
    m_LoopBlendOrientation: 0
    m_LoopBlendPositionY: 0
    m_LoopBlendPositionXZ: 0
    m_KeepOriginalOrientation: 0
    m_KeepOriginalPositionY: 1
    m_KeepOriginalPositionXZ: 0
    m_HeightFromFeet: 0
    m_Mirror: 0
  m_EditorCurves: []
  m_EulerEditorCurves: []
  m_HasGenericRootTransform: 0
  m_HasMotionFloatCurves: 0
  m_Events:
  - time: 0
    functionName: DoingSpecial
    data: true
    objectReferenceParameter: {fileID: 0}
    floatParameter: 0
    intParameter: 0
    messageOptions: 0
  - time: 0.28333333
    functionName: SpecialAttack
    data: 
    objectReferenceParameter: {fileID: 0}
    floatParameter: 0
    intParameter: 2
    messageOptions: 0
  - time: 0.36666667
    functionName: MoveByHair
    data: 
    objectReferenceParameter: {fileID: 0}
    floatParameter: 0
    intParameter: 0
    messageOptions: 0
  - time: 0.46666667
    functionName: MoveByHair
    data: 
    objectReferenceParameter: {fileID: 0}
    floatParameter: 0
    intParameter: 1
    messageOptions: 0
  - time: 0.56666666
    functionName: MoveByHair
    data: 
    objectReferenceParameter: {fileID: 0}
    floatParameter: 0
    intParameter: 2
    messageOptions: 0
  - time: 0.8333333
    functionName: AttackEnded
    data: 
    objectReferenceParameter: {fileID: 0}
    floatParameter: 0
    intParameter: 0
    messageOptions: 0
  - time: 0.8333333
    functionName: DoingSpecial
    data: false
    objectReferenceParameter: {fileID: 0}
    floatParameter: 0
    intParameter: 0
    messageOptions: 0
