%YAML 1.1
%TAG !u! tag:unity3d.com,2011:
--- !u!1001 &4924670076084259380
PrefabInstance:
  m_ObjectHideFlags: 0
  serializedVersion: 2
  m_Modification:
    m_TransformParent: {fileID: 0}
    m_Modifications:
    - target: {fileID: -7662444152241314024, guid: 2592ec85c4f341f45b51b48bbf4899a0,
        type: 3}
      propertyPath: m_audioClip
      value: 
      objectReference: {fileID: 8300000, guid: 5c3b93772e765944e953a4dfb2524202, type: 3}
    - target: {fileID: -6797442725710498201, guid: 2592ec85c4f341f45b51b48bbf4899a0,
        type: 3}
      propertyPath: _isBaskov
      value: 1
      objectReference: {fileID: 0}
    - target: {fileID: 5369178394070596792, guid: 2592ec85c4f341f45b51b48bbf4899a0,
        type: 3}
      propertyPath: m_RootOrder
      value: 0
      objectReference: {fileID: 0}
    - target: {fileID: 5369178394070596792, guid: 2592ec85c4f341f45b51b48bbf4899a0,
        type: 3}
      propertyPath: m_LocalPosition.x
      value: 0
      objectReference: {fileID: 0}
    - target: {fileID: 5369178394070596792, guid: 2592ec85c4f341f45b51b48bbf4899a0,
        type: 3}
      propertyPath: m_LocalPosition.y
      value: 0
      objectReference: {fileID: 0}
    - target: {fileID: 5369178394070596792, guid: 2592ec85c4f341f45b51b48bbf4899a0,
        type: 3}
      propertyPath: m_LocalPosition.z
      value: 0
      objectReference: {fileID: 0}
    - target: {fileID: 5369178394070596792, guid: 2592ec85c4f341f45b51b48bbf4899a0,
        type: 3}
      propertyPath: m_LocalRotation.w
      value: 1
      objectReference: {fileID: 0}
    - target: {fileID: 5369178394070596792, guid: 2592ec85c4f341f45b51b48bbf4899a0,
        type: 3}
      propertyPath: m_LocalRotation.x
      value: 0
      objectReference: {fileID: 0}
    - target: {fileID: 5369178394070596792, guid: 2592ec85c4f341f45b51b48bbf4899a0,
        type: 3}
      propertyPath: m_LocalRotation.y
      value: 0
      objectReference: {fileID: 0}
    - target: {fileID: 5369178394070596792, guid: 2592ec85c4f341f45b51b48bbf4899a0,
        type: 3}
      propertyPath: m_LocalRotation.z
      value: 0
      objectReference: {fileID: 0}
    - target: {fileID: 5369178394070596792, guid: 2592ec85c4f341f45b51b48bbf4899a0,
        type: 3}
      propertyPath: m_LocalEulerAnglesHint.x
      value: 0
      objectReference: {fileID: 0}
    - target: {fileID: 5369178394070596792, guid: 2592ec85c4f341f45b51b48bbf4899a0,
        type: 3}
      propertyPath: m_LocalEulerAnglesHint.y
      value: 0
      objectReference: {fileID: 0}
    - target: {fileID: 5369178394070596792, guid: 2592ec85c4f341f45b51b48bbf4899a0,
        type: 3}
      propertyPath: m_LocalEulerAnglesHint.z
      value: 0
      objectReference: {fileID: 0}
    - target: {fileID: 8515143824118830843, guid: 2592ec85c4f341f45b51b48bbf4899a0,
        type: 3}
      propertyPath: m_Name
      value: KIRKORO
      objectReference: {fileID: 0}
    m_RemovedComponents: []
  m_SourcePrefab: {fileID: 100100000, guid: 2592ec85c4f341f45b51b48bbf4899a0, type: 3}
