%YAML 1.1
%TAG !u! tag:unity3d.com,2011:
--- !u!74 &7400000
AnimationClip:
  m_ObjectHideFlags: 0
  m_CorrespondingSourceObject: {fileID: 0}
  m_PrefabInstance: {fileID: 0}
  m_PrefabAsset: {fileID: 0}
  m_Name: kadysheeva_reaction_fall_death_anim
  serializedVersion: 6
  m_Legacy: 0
  m_Compressed: 0
  m_UseHighQualityCurve: 1
  m_RotationCurves: []
  m_CompressedRotationCurves: []
  m_EulerCurves: []
  m_PositionCurves: []
  m_ScaleCurves: []
  m_FloatCurves: []
  m_PPtrCurves:
  - curve:
    - time: 0
      value: {fileID: -7006840468547356811, guid: ccba593daf4020743bbb7168a9008028,
        type: 3}
    - time: 0.13333334
      value: {fileID: -1898716787449750684, guid: ccba593daf4020743bbb7168a9008028,
        type: 3}
    - time: 0.25
      value: {fileID: 7792900663110347816, guid: ccba593daf4020743bbb7168a9008028,
        type: 3}
    - time: 0.36666667
      value: {fileID: 3665712816208098158, guid: ccba593daf4020743bbb7168a9008028,
        type: 3}
    - time: 0.5
      value: {fileID: -3396215405537379528, guid: ccba593daf4020743bbb7168a9008028,
        type: 3}
    - time: 0.5833333
      value: {fileID: -6216780626477853265, guid: ccba593daf4020743bbb7168a9008028,
        type: 3}
    attribute: m_Sprite
    path: 
    classID: 212
    script: {fileID: 0}
  m_SampleRate: 60
  m_WrapMode: 0
  m_Bounds:
    m_Center: {x: 0, y: 0, z: 0}
    m_Extent: {x: 0, y: 0, z: 0}
  m_ClipBindingConstant:
    genericBindings:
    - serializedVersion: 2
      path: 0
      attribute: 0
      script: {fileID: 0}
      typeID: 212
      customType: 23
      isPPtrCurve: 1
    pptrCurveMapping:
    - {fileID: -7006840468547356811, guid: ccba593daf4020743bbb7168a9008028, type: 3}
    - {fileID: -1898716787449750684, guid: ccba593daf4020743bbb7168a9008028, type: 3}
    - {fileID: 7792900663110347816, guid: ccba593daf4020743bbb7168a9008028, type: 3}
    - {fileID: 3665712816208098158, guid: ccba593daf4020743bbb7168a9008028, type: 3}
    - {fileID: -3396215405537379528, guid: ccba593daf4020743bbb7168a9008028, type: 3}
    - {fileID: -6216780626477853265, guid: ccba593daf4020743bbb7168a9008028, type: 3}
  m_AnimationClipSettings:
    serializedVersion: 2
    m_AdditiveReferencePoseClip: {fileID: 0}
    m_AdditiveReferencePoseTime: 0
    m_StartTime: 0
    m_StopTime: 0.59999996
    m_OrientationOffsetY: 0
    m_Level: 0
    m_CycleOffset: 0
    m_HasAdditiveReferencePose: 0
    m_LoopTime: 0
    m_LoopBlend: 0
    m_LoopBlendOrientation: 0
    m_LoopBlendPositionY: 0
    m_LoopBlendPositionXZ: 0
    m_KeepOriginalOrientation: 0
    m_KeepOriginalPositionY: 1
    m_KeepOriginalPositionXZ: 0
    m_HeightFromFeet: 0
    m_Mirror: 0
  m_EditorCurves: []
  m_EulerEditorCurves: []
  m_HasGenericRootTransform: 0
  m_HasMotionFloatCurves: 0
  m_Events: []
