%YAML 1.1
%TAG !u! tag:unity3d.com,2011:
--- !u!74 &7400000
AnimationClip:
  m_ObjectHideFlags: 0
  m_CorrespondingSourceObject: {fileID: 0}
  m_PrefabInstance: {fileID: 0}
  m_PrefabAsset: {fileID: 0}
  m_Name: garaev_sit_down_start_anim
  serializedVersion: 6
  m_Legacy: 0
  m_Compressed: 0
  m_UseHighQualityCurve: 1
  m_RotationCurves: []
  m_CompressedRotationCurves: []
  m_EulerCurves: []
  m_PositionCurves: []
  m_ScaleCurves: []
  m_FloatCurves: []
  m_PPtrCurves:
  - curve:
    - time: 0
      value: {fileID: -6301704606117965022, guid: 419549b72574b924f9bfbdb773a42718,
        type: 3}
    - time: 0.13333334
      value: {fileID: -1798810574910050680, guid: 419549b72574b924f9bfbdb773a42718,
        type: 3}
    - time: 0.25
      value: {fileID: 7039780248586238362, guid: 419549b72574b924f9bfbdb773a42718,
        type: 3}
    attribute: m_Sprite
    path: 
    classID: 212
    script: {fileID: 0}
  m_SampleRate: 60
  m_WrapMode: 0
  m_Bounds:
    m_Center: {x: 0, y: 0, z: 0}
    m_Extent: {x: 0, y: 0, z: 0}
  m_ClipBindingConstant:
    genericBindings:
    - serializedVersion: 2
      path: 0
      attribute: 0
      script: {fileID: 0}
      typeID: 212
      customType: 23
      isPPtrCurve: 1
    pptrCurveMapping:
    - {fileID: -6301704606117965022, guid: 419549b72574b924f9bfbdb773a42718, type: 3}
    - {fileID: -1798810574910050680, guid: 419549b72574b924f9bfbdb773a42718, type: 3}
    - {fileID: 7039780248586238362, guid: 419549b72574b924f9bfbdb773a42718, type: 3}
  m_AnimationClipSettings:
    serializedVersion: 2
    m_AdditiveReferencePoseClip: {fileID: 0}
    m_AdditiveReferencePoseTime: 0
    m_StartTime: 0
    m_StopTime: 0.26666668
    m_OrientationOffsetY: 0
    m_Level: 0
    m_CycleOffset: 0
    m_HasAdditiveReferencePose: 0
    m_LoopTime: 1
    m_LoopBlend: 0
    m_LoopBlendOrientation: 0
    m_LoopBlendPositionY: 0
    m_LoopBlendPositionXZ: 0
    m_KeepOriginalOrientation: 0
    m_KeepOriginalPositionY: 1
    m_KeepOriginalPositionXZ: 0
    m_HeightFromFeet: 0
    m_Mirror: 0
  m_EditorCurves: []
  m_EulerEditorCurves: []
  m_HasGenericRootTransform: 0
  m_HasMotionFloatCurves: 0
  m_Events:
  - time: 0
    functionName: UpdateColider
    data: 
    objectReferenceParameter: {fileID: 11400000, guid: 124706c32dda8484bb813fa7eca10b12,
      type: 2}
    floatParameter: 0
    intParameter: 0
    messageOptions: 0
  - time: 0.13333334
    functionName: UpdateColider
    data: 
    objectReferenceParameter: {fileID: 11400000, guid: 08411a0b7f554a54586aef045c6c707a,
      type: 2}
    floatParameter: 0
    intParameter: 0
    messageOptions: 0
  - time: 0.25
    functionName: UpdateColider
    data: 
    objectReferenceParameter: {fileID: 11400000, guid: 9d3f2a40ccf5c9a4ea89dd4cd35f9b5c,
      type: 2}
    floatParameter: 0
    intParameter: 0
    messageOptions: 0
