%YAML 1.1
%TAG !u! tag:unity3d.com,2011:
--- !u!74 &7400000
AnimationClip:
  m_ObjectHideFlags: 0
  m_CorrespondingSourceObject: {fileID: 0}
  m_PrefabInstance: {fileID: 0}
  m_PrefabAsset: {fileID: 0}
  m_Name: timati_somersault_anim
  serializedVersion: 6
  m_Legacy: 0
  m_Compressed: 0
  m_UseHighQualityCurve: 1
  m_RotationCurves: []
  m_CompressedRotationCurves: []
  m_EulerCurves: []
  m_PositionCurves: []
  m_ScaleCurves: []
  m_FloatCurves: []
  m_PPtrCurves:
  - curve:
    - time: 0
      value: {fileID: -4990784292591022334, guid: d56aea9f43e362742971cb03827782f9,
        type: 3}
    - time: 0.016666668
      value: {fileID: -2588955036239149309, guid: d56aea9f43e362742971cb03827782f9,
        type: 3}
    - time: 0.033333335
      value: {fileID: 6762175261996615437, guid: d56aea9f43e362742971cb03827782f9,
        type: 3}
    - time: 0.05
      value: {fileID: -7449871311463647400, guid: d56aea9f43e362742971cb03827782f9,
        type: 3}
    - time: 0.06666667
      value: {fileID: -3109691222079620887, guid: d56aea9f43e362742971cb03827782f9,
        type: 3}
    - time: 0.083333336
      value: {fileID: -6408004547173886912, guid: d56aea9f43e362742971cb03827782f9,
        type: 3}
    - time: 0.1
      value: {fileID: 5355815122102762592, guid: d56aea9f43e362742971cb03827782f9,
        type: 3}
    attribute: m_Sprite
    path: 
    classID: 212
    script: {fileID: 0}
  m_SampleRate: 60
  m_WrapMode: 0
  m_Bounds:
    m_Center: {x: 0, y: 0, z: 0}
    m_Extent: {x: 0, y: 0, z: 0}
  m_ClipBindingConstant:
    genericBindings:
    - serializedVersion: 2
      path: 0
      attribute: 0
      script: {fileID: 0}
      typeID: 212
      customType: 23
      isPPtrCurve: 1
    pptrCurveMapping:
    - {fileID: -4990784292591022334, guid: d56aea9f43e362742971cb03827782f9, type: 3}
    - {fileID: -2588955036239149309, guid: d56aea9f43e362742971cb03827782f9, type: 3}
    - {fileID: 6762175261996615437, guid: d56aea9f43e362742971cb03827782f9, type: 3}
    - {fileID: -7449871311463647400, guid: d56aea9f43e362742971cb03827782f9, type: 3}
    - {fileID: -3109691222079620887, guid: d56aea9f43e362742971cb03827782f9, type: 3}
    - {fileID: -6408004547173886912, guid: d56aea9f43e362742971cb03827782f9, type: 3}
    - {fileID: 5355815122102762592, guid: d56aea9f43e362742971cb03827782f9, type: 3}
  m_AnimationClipSettings:
    serializedVersion: 2
    m_AdditiveReferencePoseClip: {fileID: 0}
    m_AdditiveReferencePoseTime: 0
    m_StartTime: 0
    m_StopTime: 0.11666667
    m_OrientationOffsetY: 0
    m_Level: 0
    m_CycleOffset: 0
    m_HasAdditiveReferencePose: 0
    m_LoopTime: 1
    m_LoopBlend: 0
    m_LoopBlendOrientation: 0
    m_LoopBlendPositionY: 0
    m_LoopBlendPositionXZ: 0
    m_KeepOriginalOrientation: 0
    m_KeepOriginalPositionY: 1
    m_KeepOriginalPositionXZ: 0
    m_HeightFromFeet: 0
    m_Mirror: 0
  m_EditorCurves: []
  m_EulerEditorCurves: []
  m_HasGenericRootTransform: 0
  m_HasMotionFloatCurves: 0
  m_Events:
  - time: 0
    functionName: UpdateColider
    data: 
    objectReferenceParameter: {fileID: 11400000, guid: 876fdd8c5c7742f499991cd38df6b191,
      type: 2}
    floatParameter: 0
    intParameter: 0
    messageOptions: 0
  - time: 0.1
    functionName: UpdateColider
    data: 
    objectReferenceParameter: {fileID: 11400000, guid: 876fdd8c5c7742f499991cd38df6b191,
      type: 2}
    floatParameter: 0
    intParameter: 0
    messageOptions: 0
