%YAML 1.1
%TAG !u! tag:unity3d.com,2011:
--- !u!74 &7400000
AnimationClip:
  m_ObjectHideFlags: 0
  m_CorrespondingSourceObject: {fileID: 0}
  m_PrefabInstance: {fileID: 0}
  m_PrefabAsset: {fileID: 0}
  m_Name: timati_walk_anim
  serializedVersion: 6
  m_Legacy: 0
  m_Compressed: 0
  m_UseHighQualityCurve: 1
  m_RotationCurves: []
  m_CompressedRotationCurves: []
  m_EulerCurves: []
  m_PositionCurves: []
  m_ScaleCurves: []
  m_FloatCurves: []
  m_PPtrCurves:
  - curve:
    - time: 0
      value: {fileID: -9055953094176441836, guid: a0be80d0d2c418c43a757664b3ebe767,
        type: 3}
    - time: 0.1
      value: {fileID: -2708688278724212734, guid: a0be80d0d2c418c43a757664b3ebe767,
        type: 3}
    - time: 0.18333334
      value: {fileID: -6083117473688041443, guid: a0be80d0d2c418c43a757664b3ebe767,
        type: 3}
    - time: 0.3
      value: {fileID: -7264681755844979169, guid: a0be80d0d2c418c43a757664b3ebe767,
        type: 3}
    - time: 0.4
      value: {fileID: -2567062329277974090, guid: a0be80d0d2c418c43a757664b3ebe767,
        type: 3}
    - time: 0.51666665
      value: {fileID: -5579870858146958566, guid: a0be80d0d2c418c43a757664b3ebe767,
        type: 3}
    - time: 0.6
      value: {fileID: 7705275305133384934, guid: a0be80d0d2c418c43a757664b3ebe767,
        type: 3}
    - time: 0.7
      value: {fileID: -1426266858091404811, guid: a0be80d0d2c418c43a757664b3ebe767,
        type: 3}
    attribute: m_Sprite
    path: 
    classID: 212
    script: {fileID: 0}
  m_SampleRate: 60
  m_WrapMode: 0
  m_Bounds:
    m_Center: {x: 0, y: 0, z: 0}
    m_Extent: {x: 0, y: 0, z: 0}
  m_ClipBindingConstant:
    genericBindings:
    - serializedVersion: 2
      path: 0
      attribute: 0
      script: {fileID: 0}
      typeID: 212
      customType: 23
      isPPtrCurve: 1
    pptrCurveMapping:
    - {fileID: -9055953094176441836, guid: a0be80d0d2c418c43a757664b3ebe767, type: 3}
    - {fileID: -2708688278724212734, guid: a0be80d0d2c418c43a757664b3ebe767, type: 3}
    - {fileID: -6083117473688041443, guid: a0be80d0d2c418c43a757664b3ebe767, type: 3}
    - {fileID: -7264681755844979169, guid: a0be80d0d2c418c43a757664b3ebe767, type: 3}
    - {fileID: -2567062329277974090, guid: a0be80d0d2c418c43a757664b3ebe767, type: 3}
    - {fileID: -5579870858146958566, guid: a0be80d0d2c418c43a757664b3ebe767, type: 3}
    - {fileID: 7705275305133384934, guid: a0be80d0d2c418c43a757664b3ebe767, type: 3}
    - {fileID: -1426266858091404811, guid: a0be80d0d2c418c43a757664b3ebe767, type: 3}
  m_AnimationClipSettings:
    serializedVersion: 2
    m_AdditiveReferencePoseClip: {fileID: 0}
    m_AdditiveReferencePoseTime: 0
    m_StartTime: 0
    m_StopTime: 0.71666664
    m_OrientationOffsetY: 0
    m_Level: 0
    m_CycleOffset: 0
    m_HasAdditiveReferencePose: 0
    m_LoopTime: 1
    m_LoopBlend: 0
    m_LoopBlendOrientation: 0
    m_LoopBlendPositionY: 0
    m_LoopBlendPositionXZ: 0
    m_KeepOriginalOrientation: 0
    m_KeepOriginalPositionY: 1
    m_KeepOriginalPositionXZ: 0
    m_HeightFromFeet: 0
    m_Mirror: 0
  m_EditorCurves: []
  m_EulerEditorCurves: []
  m_HasGenericRootTransform: 0
  m_HasMotionFloatCurves: 0
  m_Events:
  - time: 0
    functionName: UpdateColider
    data: 
    objectReferenceParameter: {fileID: 11400000, guid: 08c2b17d8fb94cf43a734392f4998f82,
      type: 2}
    floatParameter: 0
    intParameter: 0
    messageOptions: 0
