%YAML 1.1
%TAG !u! tag:unity3d.com,2011:
--- !u!221 &22100000
AnimatorOverrideController:
  m_ObjectHideFlags: 0
  m_CorrespondingSourceObject: {fileID: 0}
  m_PrefabInstance: {fileID: 0}
  m_PrefabAsset: {fileID: 0}
  m_Name: SkeletonController
  m_Controller: {fileID: 9100000, guid: 643f8ceb0dc2536429766f464c74c49e, type: 2}
  m_Clips:
  - m_OriginalClip: {fileID: 7400000, guid: 3021181b9f897b34d9c72281029c1372, type: 2}
    m_OverrideClip: {fileID: 7400000, guid: bb9c8284010ba9846a3a6a4e45e95967, type: 2}
