%YAML 1.1
%TAG !u! tag:unity3d.com,2011:
--- !u!114 &11400000
MonoBehaviour:
  m_ObjectHideFlags: 0
  m_CorrespondingSourceObject: {fileID: 0}
  m_PrefabInstance: {fileID: 0}
  m_PrefabAsset: {fileID: 0}
  m_GameObject: {fileID: 0}
  m_Enabled: 1
  m_EditorHideFlags: 0
  m_Script: {fileID: 11500000, guid: 18a9974c066ae124c94cbdb7552f88d7, type: 3}
  m_Name: MatchParams
  m_EditorClassIdentifier: 
  player_FighterPrefab:
  - {fileID: 5460832109778423580, guid: 1710eb0dd5309ca4d841e0251a2bc077, type: 3}
  - {fileID: 1609391967633367221, guid: e5a604874bf78964ca5815ee5c295a18, type: 3}
  roundCount: 2
  timer: 99
  arenaPrefab: {fileID: 7056296992458785593, guid: f0bec6bdb24ee0a41971280da396b3ee,
    type: 3}
