%YAML 1.1
%TAG !u! tag:unity3d.com,2011:
--- !u!1045 &1
EditorBuildSettings:
  m_ObjectHideFlags: 0
  serializedVersion: 2
  m_Scenes:
  - enabled: 1
    path: Assets/Scenes/Start.unity
    guid: e4416b474110a5947b92ed654ce9fda7
  - enabled: 1
    path: Assets/Scenes/CharacterSelection.unity
    guid: c3a20e11a6e87534e952deb581933b9b
  - enabled: 1
    path: Assets/Scenes/Main.unity
    guid: 4ff1741252bcd654eae2cd88e9e403de
  m_configObjects: {}
