%YAML 1.1
%TAG !u! tag:unity3d.com,2011:
--- !u!221 &22100000
AnimatorOverrideController:
  m_ObjectHideFlags: 0
  m_CorrespondingSourceObject: {fileID: 0}
  m_PrefabInstance: {fileID: 0}
  m_PrefabAsset: {fileID: 0}
  m_Name: BoyarskyAnimator
  m_Controller: {fileID: 9100000, guid: 20f0035fb335fc14eb47ab4b0be54bf2, type: 2}
  m_Clips:
  - m_OriginalClip: {fileID: 7400000, guid: a98bace41943340508d992522c264703, type: 2}
    m_OverrideClip: {fileID: 7400000, guid: b0fc879275a6e294aa7f13ec116a4972, type: 2}
  - m_OriginalClip: {fileID: 7400000, guid: 2197be842116746da9680b0c019a158f, type: 2}
    m_OverrideClip: {fileID: 7400000, guid: 20826146be019c5439cf01197e0d0db3, type: 2}
  - m_OriginalClip: {fileID: 7400000, guid: e2242d7e1e8e0d34b83a7550c0d2f3ac, type: 2}
    m_OverrideClip: {fileID: 7400000, guid: f6f42cee51e6cd84d979aeb5e338c148, type: 2}
  - m_OriginalClip: {fileID: 7400000, guid: 8e139017eb8127f468cc75e80777d2d2, type: 2}
    m_OverrideClip: {fileID: 7400000, guid: 2f20f6982e682a14b9487d549236cdaa, type: 2}
  - m_OriginalClip: {fileID: 7400000, guid: 7a65f472664a941eaa8e1dfd5c430de6, type: 2}
    m_OverrideClip: {fileID: 7400000, guid: 0cde1fa19ba16be47b0dfc218872f16a, type: 2}
  - m_OriginalClip: {fileID: 7400000, guid: 9a3a1fe1b62f84ee5aa1ce00898ea013, type: 2}
    m_OverrideClip: {fileID: 7400000, guid: dd5385ddacbf9444591802838fe2ba78, type: 2}
  - m_OriginalClip: {fileID: 7400000, guid: a3cb47896f3e743c9b72830d3323faec, type: 2}
    m_OverrideClip: {fileID: 7400000, guid: e2defefa6d6274242a7a93d5467dc293, type: 2}
  - m_OriginalClip: {fileID: 7400000, guid: 598d9c7fb2d9a4780b48a21440521989, type: 2}
    m_OverrideClip: {fileID: 7400000, guid: bbde87f429643334bb0049447bc659d6, type: 2}
  - m_OriginalClip: {fileID: 7400000, guid: 5828710ca299c4257b9368b959bda24a, type: 2}
    m_OverrideClip: {fileID: 7400000, guid: 266a1adf9f9a1e44280de3df72cc7199, type: 2}
  - m_OriginalClip: {fileID: 7400000, guid: 531e9cf9ae60f49c3b866e86d40ca834, type: 2}
    m_OverrideClip: {fileID: 7400000, guid: ecc588fa151da3d4693aed74ed7558af, type: 2}
  - m_OriginalClip: {fileID: 7400000, guid: b99917bbd1282ce468729d090b5868b9, type: 2}
    m_OverrideClip: {fileID: 7400000, guid: 1074cd0b93ddb5848883e349ecfca54f, type: 2}
  - m_OriginalClip: {fileID: 7400000, guid: 64dacf348904c4cb69e7a5803746a6fe, type: 2}
    m_OverrideClip: {fileID: 7400000, guid: 1f5b60348edddc74f9a394d1d9e07079, type: 2}
  - m_OriginalClip: {fileID: 7400000, guid: a7e56856768d54a139e45ed479291dec, type: 2}
    m_OverrideClip: {fileID: 7400000, guid: 2482c807ed8077e488e47edf86c7ccf1, type: 2}
  - m_OriginalClip: {fileID: 7400000, guid: 01effb3da82fcf7459dbf78ade37be56, type: 2}
    m_OverrideClip: {fileID: 7400000, guid: 8b075d8d83090eb4d87a1e8eba37803a, type: 2}
  - m_OriginalClip: {fileID: 7400000, guid: 4b80f340d81e411429339b43b27f341e, type: 2}
    m_OverrideClip: {fileID: 7400000, guid: cd0b1c9e8e5d3aa44bc9559ef393558d, type: 2}
  - m_OriginalClip: {fileID: 7400000, guid: e684f9b2a30cf2a4a99e7b1a8eb4a839, type: 2}
    m_OverrideClip: {fileID: 7400000, guid: 88da5a82ef1b85d429a8a6ca52dde9fa, type: 2}
  - m_OriginalClip: {fileID: 7400000, guid: 156b81dda2d1c204db554b1730537118, type: 2}
    m_OverrideClip: {fileID: 7400000, guid: 2b9c0284cab3bed419d575d79c386483, type: 2}
  - m_OriginalClip: {fileID: 7400000, guid: 4f43d94f6817e3e458786ebf4a00aced, type: 2}
    m_OverrideClip: {fileID: 7400000, guid: 48854e6dcb60e3645bebc8b3f8ae37d5, type: 2}
  - m_OriginalClip: {fileID: 7400000, guid: 6625deaaf89094cb78d670d5027a7dc8, type: 2}
    m_OverrideClip: {fileID: 7400000, guid: b66bc12565fbb414c908d3886c952ce3, type: 2}
  - m_OriginalClip: {fileID: 7400000, guid: 171c2934500a3b743a61272feff7c2fa, type: 2}
    m_OverrideClip: {fileID: 7400000, guid: be39354c37468c44aa32d85c5785d0e0, type: 2}
  - m_OriginalClip: {fileID: 7400000, guid: 6a76676d879e8c544808da9224ff634c, type: 2}
    m_OverrideClip: {fileID: 7400000, guid: aa2901780b5d8d747b8214acf26819c3, type: 2}
  - m_OriginalClip: {fileID: 7400000, guid: 3b6b3bfcaf04d0a4882450bf59fb0990, type: 2}
    m_OverrideClip: {fileID: 7400000, guid: 9aac54a506cf382458240ee9c446ffcf, type: 2}
  - m_OriginalClip: {fileID: 7400000, guid: 5ced90cfa5b2f04458a7c0c62940bd07, type: 2}
    m_OverrideClip: {fileID: 7400000, guid: ba07a9379e27f3f40ad35119873ceddc, type: 2}
  - m_OriginalClip: {fileID: 7400000, guid: fdc31cb1e55ca9b4bb77e79976cea5af, type: 2}
    m_OverrideClip: {fileID: 7400000, guid: f2b907df61778574f9c5c8dfe82c1b33, type: 2}
  - m_OriginalClip: {fileID: 7400000, guid: 3ded7c9aed9a24878b992ea3dd8dc2bc, type: 2}
    m_OverrideClip: {fileID: 7400000, guid: 42a02b53f4fd52e4e818f1be83dde146, type: 2}
  - m_OriginalClip: {fileID: 7400000, guid: 4e1630226d4b74c5eac870ec4db155cb, type: 2}
    m_OverrideClip: {fileID: 7400000, guid: 6433f04527cf9c44e9fd8a7c295d2df5, type: 2}
  - m_OriginalClip: {fileID: 7400000, guid: cd72ed5581a02a449ae28a5358a022ea, type: 2}
    m_OverrideClip: {fileID: 7400000, guid: 30ae7989b7f517c4392ebcb35549a3f9, type: 2}
  - m_OriginalClip: {fileID: 7400000, guid: 69fa0a61b93d2c743ba21c618c32adc9, type: 2}
    m_OverrideClip: {fileID: 7400000, guid: c95dfaeda24e4274381359fb38fd8ba1, type: 2}
  - m_OriginalClip: {fileID: 7400000, guid: 8d266199161828343a5a0b4560ee5b56, type: 2}
    m_OverrideClip: {fileID: 7400000, guid: 968c38b6a5ebe774ab8a7b9e55007dcc, type: 2}
  - m_OriginalClip: {fileID: 7400000, guid: c852f5efda4b26c4584feca4ce3636b2, type: 2}
    m_OverrideClip: {fileID: 7400000, guid: 3198c79d2b4588c43bcea55de3ae3297, type: 2}
  - m_OriginalClip: {fileID: 7400000, guid: 93e95dc188fa0d446bc24221c64f56e7, type: 2}
    m_OverrideClip: {fileID: 7400000, guid: 314a1b5053c4ab94f89541dce522aaf3, type: 2}
  - m_OriginalClip: {fileID: 7400000, guid: 7ea5ebd143f9717458e4655f17a7ff05, type: 2}
    m_OverrideClip: {fileID: 7400000, guid: ebe7bd5f0568f7f42b1b4511b2d3f018, type: 2}
  - m_OriginalClip: {fileID: 7400000, guid: bbfa574a3ab579e4b9b90f70ac236f0a, type: 2}
    m_OverrideClip: {fileID: 7400000, guid: 909b963599006274f92ea243dba77ca0, type: 2}
  - m_OriginalClip: {fileID: 7400000, guid: c2e1d81d6fba1e347a8c6e2e433ddc51, type: 2}
    m_OverrideClip: {fileID: 7400000, guid: 2656b3846f5a2d24080d0747e52d1440, type: 2}
  - m_OriginalClip: {fileID: 7400000, guid: 8969377da96d43a489cdcd5d51abc83c, type: 2}
    m_OverrideClip: {fileID: 7400000, guid: d4ec8bebe59da084fa4c885ee9f759d5, type: 2}
  - m_OriginalClip: {fileID: 7400000, guid: cf93c7fb574ec514ca7ec052a903c1cd, type: 2}
    m_OverrideClip: {fileID: 7400000, guid: 0b6f761c61caf2b4298a7ccc7810875e, type: 2}
  - m_OriginalClip: {fileID: 7400000, guid: 67002e30ec17df64a974c1d24e1bf8ed, type: 2}
    m_OverrideClip: {fileID: 7400000, guid: 434f1087b21a54f4fbc24f08dd9b705f, type: 2}
  - m_OriginalClip: {fileID: 7400000, guid: 69333ac8481e6d945ae3edfd5f42a1df, type: 2}
    m_OverrideClip: {fileID: 7400000, guid: 30935c6eb7d2f644a9b4522230851f45, type: 2}
  - m_OriginalClip: {fileID: 7400000, guid: 08f35a564e6e9ba4bb49412fff2e12da, type: 2}
    m_OverrideClip: {fileID: 7400000, guid: 03052403457cfa3469f8bf0a8d6597e2, type: 2}
