%YAML 1.1
%TAG !u! tag:unity3d.com,2011:
--- !u!74 &7400000
AnimationClip:
  m_ObjectHideFlags: 0
  m_CorrespondingSourceObject: {fileID: 0}
  m_PrefabInstance: {fileID: 0}
  m_PrefabAsset: {fileID: 0}
  m_Name: kirkorov_idle_anim
  serializedVersion: 6
  m_Legacy: 0
  m_Compressed: 0
  m_UseHighQualityCurve: 1
  m_RotationCurves: []
  m_CompressedRotationCurves: []
  m_EulerCurves: []
  m_PositionCurves: []
  m_ScaleCurves: []
  m_FloatCurves: []
  m_PPtrCurves:
  - curve:
    - time: 0
      value: {fileID: -5273903133566409479, guid: 0c40309ab70614a77817f9cc1662041e,
        type: 3}
    - time: 0.11666667
      value: {fileID: -2398372179576752722, guid: 0c40309ab70614a77817f9cc1662041e,
        type: 3}
    - time: 0.23333333
      value: {fileID: -8715188283190838910, guid: 0c40309ab70614a77817f9cc1662041e,
        type: 3}
    - time: 0.35
      value: {fileID: 7610142219956205347, guid: 0c40309ab70614a77817f9cc1662041e,
        type: 3}
    - time: 0.45
      value: {fileID: -6870314717699957814, guid: 0c40309ab70614a77817f9cc1662041e,
        type: 3}
    - time: 0.56666666
      value: {fileID: -4683403834004002291, guid: 0c40309ab70614a77817f9cc1662041e,
        type: 3}
    - time: 0.68333334
      value: {fileID: 4538267211393123579, guid: 0c40309ab70614a77817f9cc1662041e,
        type: 3}
    - time: 0.8
      value: {fileID: -1323350154394975413, guid: 0c40309ab70614a77817f9cc1662041e,
        type: 3}
    attribute: m_Sprite
    path: 
    classID: 212
    script: {fileID: 0}
  m_SampleRate: 60
  m_WrapMode: 0
  m_Bounds:
    m_Center: {x: 0, y: 0, z: 0}
    m_Extent: {x: 0, y: 0, z: 0}
  m_ClipBindingConstant:
    genericBindings:
    - serializedVersion: 2
      path: 0
      attribute: 0
      script: {fileID: 0}
      typeID: 212
      customType: 23
      isPPtrCurve: 1
    pptrCurveMapping:
    - {fileID: -5273903133566409479, guid: 0c40309ab70614a77817f9cc1662041e, type: 3}
    - {fileID: -2398372179576752722, guid: 0c40309ab70614a77817f9cc1662041e, type: 3}
    - {fileID: -8715188283190838910, guid: 0c40309ab70614a77817f9cc1662041e, type: 3}
    - {fileID: 7610142219956205347, guid: 0c40309ab70614a77817f9cc1662041e, type: 3}
    - {fileID: -6870314717699957814, guid: 0c40309ab70614a77817f9cc1662041e, type: 3}
    - {fileID: -4683403834004002291, guid: 0c40309ab70614a77817f9cc1662041e, type: 3}
    - {fileID: 4538267211393123579, guid: 0c40309ab70614a77817f9cc1662041e, type: 3}
    - {fileID: -1323350154394975413, guid: 0c40309ab70614a77817f9cc1662041e, type: 3}
  m_AnimationClipSettings:
    serializedVersion: 2
    m_AdditiveReferencePoseClip: {fileID: 0}
    m_AdditiveReferencePoseTime: 0
    m_StartTime: 0
    m_StopTime: 0.81666666
    m_OrientationOffsetY: 0
    m_Level: 0
    m_CycleOffset: 0
    m_HasAdditiveReferencePose: 0
    m_LoopTime: 1
    m_LoopBlend: 0
    m_LoopBlendOrientation: 0
    m_LoopBlendPositionY: 0
    m_LoopBlendPositionXZ: 0
    m_KeepOriginalOrientation: 0
    m_KeepOriginalPositionY: 1
    m_KeepOriginalPositionXZ: 0
    m_HeightFromFeet: 0
    m_Mirror: 0
  m_EditorCurves: []
  m_EulerEditorCurves: []
  m_HasGenericRootTransform: 0
  m_HasMotionFloatCurves: 0
  m_Events:
  - time: 0
    functionName: UpdateColider
    data: 
    objectReferenceParameter: {fileID: 11400000, guid: f47a188ee07fd6f40aeb048b018959a4,
      type: 2}
    floatParameter: 0
    intParameter: 0
    messageOptions: 0
  - time: 0
    functionName: DoingSpecial
    data: false
    objectReferenceParameter: {fileID: 0}
    floatParameter: 0
    intParameter: 0
    messageOptions: 0
