%YAML 1.1
%TAG !u! tag:unity3d.com,2011:
--- !u!74 &7400000
AnimationClip:
  m_ObjectHideFlags: 0
  m_CorrespondingSourceObject: {fileID: 0}
  m_PrefabInstance: {fileID: 0}
  m_PrefabAsset: {fileID: 0}
  m_Name: FightText_Fade
  serializedVersion: 6
  m_Legacy: 0
  m_Compressed: 0
  m_UseHighQualityCurve: 1
  m_RotationCurves: []
  m_CompressedRotationCurves: []
  m_EulerCurves: []
  m_PositionCurves: []
  m_ScaleCurves: []
  m_FloatCurves: []
  m_PPtrCurves:
  - curve:
    - time: 0
      value: {fileID: 5325016444729703245, guid: b42f7abe8d0a13546808b1fb835efd47,
        type: 3}
    - time: 0.05
      value: {fileID: -6011336549007777320, guid: b42f7abe8d0a13546808b1fb835efd47,
        type: 3}
    - time: 0.083333336
      value: {fileID: 3781166022574085118, guid: b42f7abe8d0a13546808b1fb835efd47,
        type: 3}
    - time: 0.13333334
      value: {fileID: 6745807785119296094, guid: b42f7abe8d0a13546808b1fb835efd47,
        type: 3}
    - time: 0.16666667
      value: {fileID: 77559109030340145, guid: b42f7abe8d0a13546808b1fb835efd47, type: 3}
    - time: 0.21666667
      value: {fileID: 7036139503223107992, guid: b42f7abe8d0a13546808b1fb835efd47,
        type: 3}
    - time: 0.26666668
      value: {fileID: 2452216869655174422, guid: b42f7abe8d0a13546808b1fb835efd47,
        type: 3}
    - time: 0.3
      value: {fileID: 6102817768983064997, guid: b42f7abe8d0a13546808b1fb835efd47,
        type: 3}
    - time: 0.35
      value: {fileID: -587609672447688759, guid: b42f7abe8d0a13546808b1fb835efd47,
        type: 3}
    - time: 0.38333333
      value: {fileID: 1145697737548592445, guid: b42f7abe8d0a13546808b1fb835efd47,
        type: 3}
    - time: 0.43333334
      value: {fileID: -6683249517639504664, guid: b42f7abe8d0a13546808b1fb835efd47,
        type: 3}
    - time: 0.46666667
      value: {fileID: -4059609888503712836, guid: b42f7abe8d0a13546808b1fb835efd47,
        type: 3}
    - time: 0.51666665
      value: {fileID: -4124671116949094664, guid: b42f7abe8d0a13546808b1fb835efd47,
        type: 3}
    attribute: m_Sprite
    path: 
    classID: 114
    script: {fileID: 11500000, guid: fe87c0e1cc204ed48ad3b37840f39efc, type: 3}
  m_SampleRate: 60
  m_WrapMode: 0
  m_Bounds:
    m_Center: {x: 0, y: 0, z: 0}
    m_Extent: {x: 0, y: 0, z: 0}
  m_ClipBindingConstant:
    genericBindings:
    - serializedVersion: 2
      path: 0
      attribute: 2015549526
      script: {fileID: 11500000, guid: fe87c0e1cc204ed48ad3b37840f39efc, type: 3}
      typeID: 114
      customType: 0
      isPPtrCurve: 1
    pptrCurveMapping:
    - {fileID: 5325016444729703245, guid: b42f7abe8d0a13546808b1fb835efd47, type: 3}
    - {fileID: -6011336549007777320, guid: b42f7abe8d0a13546808b1fb835efd47, type: 3}
    - {fileID: 3781166022574085118, guid: b42f7abe8d0a13546808b1fb835efd47, type: 3}
    - {fileID: 6745807785119296094, guid: b42f7abe8d0a13546808b1fb835efd47, type: 3}
    - {fileID: 77559109030340145, guid: b42f7abe8d0a13546808b1fb835efd47, type: 3}
    - {fileID: 7036139503223107992, guid: b42f7abe8d0a13546808b1fb835efd47, type: 3}
    - {fileID: 2452216869655174422, guid: b42f7abe8d0a13546808b1fb835efd47, type: 3}
    - {fileID: 6102817768983064997, guid: b42f7abe8d0a13546808b1fb835efd47, type: 3}
    - {fileID: -587609672447688759, guid: b42f7abe8d0a13546808b1fb835efd47, type: 3}
    - {fileID: 1145697737548592445, guid: b42f7abe8d0a13546808b1fb835efd47, type: 3}
    - {fileID: -6683249517639504664, guid: b42f7abe8d0a13546808b1fb835efd47, type: 3}
    - {fileID: -4059609888503712836, guid: b42f7abe8d0a13546808b1fb835efd47, type: 3}
    - {fileID: -4124671116949094664, guid: b42f7abe8d0a13546808b1fb835efd47, type: 3}
  m_AnimationClipSettings:
    serializedVersion: 2
    m_AdditiveReferencePoseClip: {fileID: 0}
    m_AdditiveReferencePoseTime: 0
    m_StartTime: 0
    m_StopTime: 0.5333333
    m_OrientationOffsetY: 0
    m_Level: 0
    m_CycleOffset: 0
    m_HasAdditiveReferencePose: 0
    m_LoopTime: 0
    m_LoopBlend: 0
    m_LoopBlendOrientation: 0
    m_LoopBlendPositionY: 0
    m_LoopBlendPositionXZ: 0
    m_KeepOriginalOrientation: 0
    m_KeepOriginalPositionY: 1
    m_KeepOriginalPositionXZ: 0
    m_HeightFromFeet: 0
    m_Mirror: 0
  m_EditorCurves: []
  m_EulerEditorCurves: []
  m_HasGenericRootTransform: 0
  m_HasMotionFloatCurves: 0
  m_Events:
  - time: 0.51666665
    functionName: DeactivateObject
    data: 
    objectReferenceParameter: {fileID: 0}
    floatParameter: 0
    intParameter: 0
    messageOptions: 0
