%YAML 1.1
%TAG !u! tag:unity3d.com,2011:
--- !u!114 &11400000
MonoBehaviour:
  m_ObjectHideFlags: 0
  m_CorrespondingSourceObject: {fileID: 0}
  m_PrefabInstance: {fileID: 0}
  m_PrefabAsset: {fileID: 0}
  m_GameObject: {fileID: 0}
  m_Enabled: 1
  m_EditorHideFlags: 0
  m_Script: {fileID: 11500000, guid: 28d2085141289a54e8f5b56309943346, type: 3}
  m_Name: uppercut
  m_EditorClassIdentifier: 
  offset: {x: 0.1102134, y: -0.405112}
  size: {x: 0.25, y: 1.470851}
